{
    "version": "0.1.0",
    "summary": "Example Elm project.",
    "repository": "https://github.com/SShrike/playground.git",
    "license": "Unlicense",
    "source-directories": [
        "src/elm"
    ],
    "exposed-modules": [],
    "dependencies": {
        "elm-lang/core": "4.0.5 <= v < 5.0.0",
        "elm-lang/html": "1.1.0 <= v < 2.0.0",
        "evancz/elm-http": "3.0.1 <= v < 4.0.0",
        "evancz/elm-markdown": "3.0.0 <= v < 4.0.0"
    },
    "elm-version": "0.17.1 <= v < 0.18.0"
}
